UNIVERSITY GROUPS:


**************************************
381608-1 SWE

Students:
--------------------------------------
9 Smirnov Pavel Stepanovich
Marks: 3 3 1 3 3 5 2 4 1 5 
Average mark: 3
--------------------------------------
--------------------------------------
23 Rylkova Snezhana Valerievna
Marks: 2 2 5 2 3 5 5 5 5 1 
Average mark: 3.5
--------------------------------------
--------------------------------------
49 Golubev Alexey Alexeevich
Marks: 3 1 4 5 5 4 5 4 5 4 
Average mark: 4
--------------------------------------
--------------------------------------
26 Matveev Egor Egorovich
Marks: 4 5 5 3 2 5 1 2 4 5 
Average mark: 3.6
--------------------------------------
--------------------------------------
42 Shiryaeva Alina Grigorievna
Marks: 3 4 5 2 3 4 5 1 5 3 
Average mark: 3.5
--------------------------------------
Headman:
9 Smirnov Pavel Stepanovich
--------------------------------------
Average mark in the group: 3.52
--------------------------------------
**************************************

**************************************
381606-2 FIIT

Students:
--------------------------------------
29 Raskolnikov Rodion Romanovich
Marks: 5 2 5 5 1 2 3 5 1 3 
Average mark: 3.2
--------------------------------------
--------------------------------------
32 Pestov Malor Ignatievich
Marks: 4 2 3 2 4 5 5 1 1 3 
Average mark: 3
--------------------------------------
Headman:
32 Pestov Malor Ignatievich
--------------------------------------
Average mark in the group: 3.1
--------------------------------------
**************************************

**************************************
381603-1 AMaI

Students:
--------------------------------------
50 Frolov Denis Damirovich
Marks: 5 2 2 1 5 2 5 2 4 4 
Average mark: 3.2
--------------------------------------
--------------------------------------
47 Sidorov Fedot Vladimirovich
Marks: 5 4 5 3 3 5 1 4 1 5 
Average mark: 3.6
--------------------------------------
--------------------------------------
12 Negina Daria Vladimirovna
Marks: 2 2 5 3 4 3 5 4 3 5 
Average mark: 3.6
--------------------------------------
--------------------------------------
46 Danilov Fedor Petrovich
Marks: 1 5 4 3 2 2 3 5 1 4 
Average mark: 3
--------------------------------------
Headman:
50 Frolov Denis Damirovich
--------------------------------------
Average mark in the group: 3.35
--------------------------------------
**************************************

**************************************
381602 MATHEMATICS

Students:
--------------------------------------
4 Botkin Dmitry Alexeevich
Marks: 4 1 4 4 4 3 1 5 2 3 
Average mark: 3.1
--------------------------------------
--------------------------------------
7 Sinkov Alexander Ilyich
Marks: 5 4 5 5 4 2 1 1 4 2 
Average mark: 3.3
--------------------------------------
--------------------------------------
10 Malova Anna Pavlovna
Marks: 2 4 4 5 3 3 5 2 1 3 
Average mark: 3.2
--------------------------------------
--------------------------------------
11 Sorokina Anna Romanovna
Marks: 5 3 5 5 5 5 2 4 4 5 
Average mark: 4.3
--------------------------------------
--------------------------------------
17 Dudenkov Danil Andreevich
Marks: 5 1 2 1 4 2 5 4 3 3 
Average mark: 3
--------------------------------------
Headman:
11 Sorokina Anna Romanovna
--------------------------------------
Average mark in the group: 3.38
--------------------------------------
**************************************

**************************************
381605 MaCS

Students:
--------------------------------------
1 Ivanov Ivan Ivanovich
Marks: 5 1 5 2 4 2 4 5 2 3 
Average mark: 3.3
--------------------------------------
--------------------------------------
41 Pestova Antonina Kupriyanovna
Marks: 5 2 4 5 4 2 4 5 5 5 
Average mark: 4.1
--------------------------------------
--------------------------------------
13 Kulakov Nikolay Andreevich
Marks: 1 3 1 4 5 5 5 5 1 5 
Average mark: 3.5
--------------------------------------
--------------------------------------
14 Morozova Olga Alexandrovna
Marks: 5 1 5 5 5 3 1 3 5 3 
Average mark: 3.6
--------------------------------------
--------------------------------------
39 Dorofeev Egor Artemovich
Marks: 3 5 4 5 1 4 5 1 2 3 
Average mark: 3.3
--------------------------------------
--------------------------------------
20 Borisova Valeria Dmitrievna
Marks: 5 1 3 5 5 1 4 2 2 2 
Average mark: 3
--------------------------------------
--------------------------------------
37 Medvedev Ivan Tikhonovich
Marks: 3 5 5 1 2 1 4 3 3 4 
Average mark: 3.1
--------------------------------------
Headman:
13 Kulakov Nikolay Andreevich
--------------------------------------
Average mark in the group: 3.41429
--------------------------------------
**************************************
